<?xml version="1.0" encoding="utf-8"?>
<!-- Generator: Adobe Illustrator 22.1.0, SVG Export Plug-In . SVG Version: 6.00 Build 0)  -->
<svg version="1.1" id="Vrstva_1" xmlns="http://www.w3.org/2000/svg" xmlns:xlink="http://www.w3.org/1999/xlink" x="0px" y="0px"
	 viewBox="0 0 615.3 81.3" style="enable-background:new 0 0 615.3 81.3;" xml:space="preserve">
<style type="text/css">
	.st0{fill-rule:evenodd;clip-rule:evenodd;fill:#DCA16B;}
	.st1{fill:#DCA16B;}
</style>
<g>
	<path class="st0" d="M303.3,41.9c-3.1,7.4-5.4,17.6-5.4,24.3c0,3.3,1.7,3.3,3.2,3c1.4-0.3,2,1.3,0.6,2.4
		c-7.2,5.6-16.9,2.6-16.9-6.8c0-8.2,1.9-17,4.4-23.7C292.8,31.6,307.5,32.1,303.3,41.9 M276,69.2c-1.5,0.4-3.2,0.3-3.2-3
		c0-7.9,3-22,8.3-36c2.3-0.3,4.5-0.5,6.7-0.8c3.4-0.4,2.5-3.4,0.1-3.4h-5.2c0.4-0.9,0.7-1.7,1.1-2.6c4.3-9.8-9.3-10.3-13-0.8
		c-0.5,1.3-1,2.7-1.6,4c-1.7,0.2-3.3,0.3-4.7,0.5c-5.7,0.8-6,6.9,0,5.7c0.9-0.2,1.8-0.3,2.6-0.5C262.9,45.1,260,57,260,64.9
		c0,9.4,9.4,12.4,16.6,6.8C278,70.6,277.4,68.9,276,69.2 M302.4,31c5.4,0,8.1-4.9,8.1-8c0-3.5-2.3-6.3-6.4-6.3c-5.3,0-8.4,4-8.4,8.1
		C295.8,28.8,299.9,31,302.4,31 M54.4,12.3C69,3,79.1,9.2,79.1,23.6c0,19.3-13.1,39.1-26.1,46.2c-1.8,1-4.3,0.9-3.5-2.3
		C53.6,51.9,60.2,19.4,41.8,6C9.6-17.6-27.5,34.1,30.1,62.8c1.6,0.8,2.7-1,1.2-2c-40.9-26.9-19.6-54.9-4-48.6
		c14.9,6,17.2,29.2,14.1,54.1c-1,8.1,5.8,10.9,13.3,7.8c20.1-8.4,40.4-31,40.4-50.4c0-26.2-26.8-30.5-42.3-13.1
		C51.7,11.7,52.9,13.2,54.4,12.3 M144.1,30.2c8.7,13-2.6,35.6-11.5,40.6c-2.3,1.3-3.8-0.1-3.5-4.6c0.3-5.3,2.1-14.7,5.9-24.4
		c3.8-9.6-10.7-10.5-14.4-0.1c-3,8.7-4,16.1-3.4,22.7c0.7,6.6,5.4,10.9,11.3,10.9c12.5,0,31.1-12.9,31.1-33.4
		c0-6.7-5.4-14.5-14.8-13.4C144.1,28.5,143.6,29.4,144.1,30.2 M340.6,58.5c-0.5-4.6-5.1-14.5-6.8-19.7c-0.5-1.6-1.7-4.1,0.3-6.1
		c0.6-0.7,0.2-1.8-0.7-1.9c-9.6-1-14.9,6.3-11.7,13.8c1.9,4.5,5.3,13,6.6,16.1c2.4,5.6,0.6,11.3-5,11.3c-5.3,0-8.7-4.5-5.3-14
		c3.4-9.4-8.6-9.9-10.8-1.8c-3.1,11.6,3.4,19.1,15.7,19.1C330.5,75.3,342,71.3,340.6,58.5 M204.2,71.6c-6.3,4.9-15.1,3-16.8-2.6
		c-0.5-1.6-0.5-3.6-0.1-5.1c-3.4,8-9.7,11.4-15,11.4c-5.6,0-10.2-4.2-10.8-10.5c-1.2-13.6,11-34.3,34.9-31.1
		c4.7,0.6,10.3,3.3,7.8,12.3c-2,7-3.2,13.5-3.7,20.3c-0.2,3.3,1.7,3.3,3.2,3C205,68.9,205.6,70.6,204.2,71.6 M191.2,38.5
		c-11.5-0.7-19,12.6-19,23.2c0,7.8,9.7,10,15.8-5.8c1.6-4.1,3.4-9,4.8-15.3C193,39.5,192.8,38.6,191.2,38.5 M251.8,69.3
		c-2,0.4-3.2-0.5-2.9-4c1-9.8,2.8-16.6,4-21.1c2-7.3-1.2-12.4-9.2-10.3c-5.5,1.4-14.1,7.4-18.7,16.4c2.1-7.5,3.3-8.4,3.5-11
		c0.3-3.5-1.9-5.1-4.3-5.1c-5.6,0-8.7,4.2-10.3,10.1c-1.8,6.7-4.1,15.6-4,23.3c0.2,8.4,9.7,9.2,11.4,1.9c0.5-2.3,1-4.7,1.5-6.7
		c2.6-9.8,8.5-14.9,12.9-17.2c3.5-1.7,3.9,0,3.1,2.4c-1.3,4-3,12.6-2.8,17c0.2,6.5,4.2,9.5,9,9.5c3.8,0,7.2-2.4,7.9-3.1
		C254.1,70.2,253.6,68.9,251.8,69.3 M97.3,41.1c-2.5,6.7-4.4,15.5-4.4,23.7c0,9.4,9.6,12.4,16.9,6.8c1.4-1.1,0.8-2.8-0.6-2.4
		c-1.5,0.4-3.2,0.3-3.2-3c0-6.8,2.4-16.9,5.4-24.3C115.6,32.1,100.9,31.6,97.3,41.1 M112.3,16.6c-5.3,0-8.4,4-8.4,8.1
		c0,4.1,4.2,6.3,6.6,6.3c5.4,0,8.1-4.9,8.1-8C118.6,19.5,116.3,16.6,112.3,16.6"/>
	<path class="st1" d="M359.5,50.7h8.4c4.8,0,7.9,1.9,7.9,6.1c0,2.7-1.7,4.5-4.3,5.3c3.8,0.6,6.2,2.5,6.2,6.1c0,3.8-2.8,6.2-8.2,6.2
		h-10V50.7z M367.4,61.2c3.5,0,6-1.3,6-4.1c0-3-2.2-4.3-5.7-4.3h-5.8v8.4H367.4z M369.2,72.3c3.9,0,5.9-1.6,5.9-4.3
		c0-3.3-2.5-4.7-6.7-4.7h-6.6v9H369.2z"/>
	<path class="st1" d="M381.2,56.2l7.2,15.6l6.6-15.6h2.4L389,75.7c-1.5,3.6-3,5.6-6.6,5.6c-1.8,0-3.3-0.7-4.1-1.3l0.5-2
		c0.9,0.6,2,1.2,3.7,1.2c2.3,0,3.3-1.3,4.3-3.6l0.6-1.4l-8.7-18.1H381.2z M389.1,53.4h-2.2l2.9-4.8h2.4L389.1,53.4z"/>
	<path class="st1" d="M404.4,51.6v4.6h6.8v2h-6.8v10.7c0,2.5,1.2,3.8,3.4,3.8c1.4,0,3.2-0.6,4.3-1.4l0.8,1.9c-1.5,1-3.5,1.7-5.8,1.7
		c-3.2,0-5.1-2-5.1-5.5V58.1H399v-2h3.1l0.2-4.6H404.4z"/>
	<path class="st1" d="M439.1,59.3c-1.5-0.7-3.8-1.4-5.9-1.4c-3,0-5.1,1.3-5.1,3.4c0,1.7,1.1,2.1,3.2,2.6l4,0.9c3,0.7,4.6,2,4.6,4.5
		c0,3.2-2.5,5.5-7,5.5c-3.1,0-5.4-0.9-6.8-1.6l0.5-2.1c1.4,0.7,3.6,1.6,6.2,1.6c3.1,0,4.8-1.4,4.8-3.3c0-1.6-1.4-2.2-3.5-2.6
		l-3.9-0.9c-2.9-0.7-4.6-1.8-4.6-4.5c0-3.2,2.9-5.6,7.6-5.6c2.3,0,5.1,0.7,6.4,1.4L439.1,59.3z"/>
	<path class="st1" d="M460.6,70.4c0,1.4,0.4,2.3,1.7,2.3c0.7,0,1.3-0.3,2-0.8l0.3,1.9c-0.8,0.5-2,0.9-3.1,0.9c-1.9,0-2.9-1-3.1-2.7
		c-1.4,1.5-3.6,2.7-6.3,2.7c-5.4,0-8.9-3.9-8.9-9.4c0-5.5,3.5-9.5,8.9-9.5c2.6,0,4.8,1.1,6.2,2.5v-2.2h2.4V70.4z M458.2,60.5
		c-1.1-1.3-3.2-2.5-5.6-2.5c-4.3,0-7,3-7,7.4c0,4.3,2.8,7.3,7,7.3c2.4,0,4.5-1.2,5.6-2.4V60.5z M454,53.4h-2.2l2.9-4.8h2.4L454,53.4
		z"/>
	<path class="st1" d="M470.1,56.2v3.4c1.2-2.2,3.3-3.7,6.4-3.7c3.5,0,5.4,1.6,6.2,4.3c1.1-2.5,3.5-4.3,6.8-4.3
		c4.7,0,6.7,3.5,6.7,8.1v6.5c0,1.4,0.4,2.3,1.6,2.3c0.6,0,1.3-0.3,2-0.8l0.3,1.9c-0.8,0.5-2,0.9-3.1,0.9c-2.2,0-3.2-1.3-3.2-3.9
		v-6.6c0-3.5-1.5-6.1-5.1-6.1c-3.1,0-5,2.2-5.6,4.7v11.6h-2.4V64.2c0-3.6-1.5-6.1-5.1-6.1c-3.1,0-5,2.2-5.7,4.7v11.6h-2.4V56.2
		H470.1z"/>
	<path class="st1" d="M525.1,59.3c-1.5-0.7-3.8-1.4-5.9-1.4c-3,0-5.1,1.3-5.1,3.4c0,1.7,1.1,2.1,3.2,2.6l4,0.9c3,0.7,4.6,2,4.6,4.5
		c0,3.2-2.5,5.5-7,5.5c-3.1,0-5.4-0.9-6.8-1.6l0.5-2.1c1.4,0.7,3.6,1.6,6.2,1.6c3.1,0,4.8-1.4,4.8-3.3c0-1.6-1.4-2.2-3.4-2.6
		l-3.9-0.9c-2.9-0.7-4.6-1.8-4.6-4.5c0-3.2,2.9-5.6,7.6-5.6c2.3,0,5.1,0.7,6.4,1.4L525.1,59.3z"/>
	<path class="st1" d="M546.3,72.4c-1.9,1.5-4.4,2.5-7.5,2.5c-6.9,0-9.8-4.3-9.8-9.6c0-5.3,3.7-9.7,9.5-9.7c5.5,0,8,3.5,8,7.6
		c0,1-0.1,2.2-0.3,2.9h-14.8c0.2,3.8,2.5,6.7,7.5,6.7c2.7,0,4.8-1,6.4-2.2L546.3,72.4z M544.3,62.9c0-2.8-1.7-5.2-5.8-5.2
		c-4.3,0-6.8,3-7,6.5h12.7C544.2,63.9,544.3,63.4,544.3,62.9"/>
	<path class="st1" d="M559.8,74.8c-2.7,0-4.8-1.1-6.2-2.5v2.2h-2.4V49.7h2.4v8.6c1.4-1.4,3.6-2.4,6.2-2.4c5.4,0,8.9,3.9,8.9,9.4
		C568.6,70.8,565.1,74.8,559.8,74.8 M559.2,58c-2.4,0-4.5,1.3-5.6,2.5v9.6c1.1,1.2,3.2,2.5,5.6,2.5c4.3,0,7-3,7-7.4
		C566.2,61,563.5,58,559.2,58"/>
	<path class="st1" d="M581.5,55.7c5.7,0,9.7,4.1,9.7,9.7c0,5.5-4,9.5-9.7,9.5c-5.6,0-9.7-4.1-9.7-9.5
		C571.9,59.8,575.9,55.7,581.5,55.7 M581.5,72.7c4.4,0,7.4-3.2,7.4-7.4c0-4.3-3-7.5-7.4-7.5c-4.3,0-7.4,3.2-7.4,7.5
		C574.2,69.5,577.2,72.7,581.5,72.7"/>
	<path class="st1" d="M611.3,56.2v14.2c0,1.4,0.4,2.3,1.6,2.3c0.7,0,1.3-0.3,2.1-0.8l0.3,1.9c-0.8,0.5-2,0.9-3.1,0.9
		c-2,0-3.1-1.1-3.2-3.3c-1.3,2.1-3.7,3.3-6.7,3.3c-4.7,0-7-3.3-7-8V56.2h2.4v10.2c0,3.7,1.6,6.1,5.3,6.1c3.1,0,5.2-2,5.9-4.1V56.2
		H611.3z"/>
</g>
</svg>
