{
  "headers": {
    "filesToWatch": [
      "css/**/*.scss"
    ],
    "outputDir": "css/compiled"
  },
  "bundles": [
    {
      "name": "vivantis",
      "files": [
        "css/vivantis.scss"
      ]
    }
  ]
}