{
  "headers": {
    "filesToWatch": [
      "js/layout/**/*.js"
    ],
    "outputDir": "js/compiled"
  },
  "bundles": [
    {
      "name": "vivantis",
      "files": [
        "js/layout/layout.js"
      ]
    }
  ]
}
